…
serie_UCI_parameter<-  function(paciente,parameters){
  paciente %>% arrange(Parameter,Time) %>% filter(Parameter %in% parameters) %>% add_column(RecordID=paciente[1,3]$Value) 
  } 

##ejemplo
parameters=c("HR","RespRate","GCS")
serie_paciente1 =serie_UCI_parameter(raw_data[[1]],parameters)
serie_paciente1
```

```
## # A tibble: 92 x 4
##    Time   Parameter Value RecordID
##    <drtn> <chr>     <dbl>    <dbl>
##  1 00'07" GCS          15   132539
##  2 03'37" GCS          15   132539
##  3 07'37" GCS          15   132539
##  4 11'37" GCS          15   132539
##  5 15'37" GCS          15   132539
##  6 19'37" GCS          15   132539
##  7 23'37" GCS          15   132539
##  8 27'37" GCS          15   132539
##  9 31'37" GCS          14   132539
## 10 35'37" GCS          15   132539
## # ... with 82 more rows
```
…
