…
```r
# Arreglamos el error de time
serie_UCI_parameter <- function(paciente,parameters){ paciente %>%
                                                      arrange(Parameter,Time_Minutes) %>%
                                                      filter(Parameter %in% parameters) %>%
                                                      add_column(RecordID = paciente[1,3]$Value) } 
##ejemplo
parameters = c("HR","RespRate","GCS")
serie_paciente1 = serie_UCI_parameter(raw_data[[1]],parameters)
serie_paciente1
```

```
## # A tibble: 92 x 4
##    Time_Minutes Parameter Value RecordID
##           <dbl> <chr>     <dbl>    <dbl>
##  1            7 GCS          15   132539
##  2          217 GCS          15   132539
##  3          457 GCS          15   132539
##  4          697 GCS          15   132539
##  5          937 GCS          15   132539
##  6         1177 GCS          15   132539
##  7         1417 GCS          15   132539
##  8         1657 GCS          15   132539
##  9         1897 GCS          14   132539
## 10         2137 GCS          15   132539
## # ... with 82 more rows
```
…
```r
# DE FORMA MANUAL, VOLVEMOS AL DATA SET ORIGINAL Y SELECCIONAMOS LAS 10 VARIABLES DE "nombres_def"
data_real_tidy = select(data_tidy, contains("RecordID"),  contains("Age"),  contains("Gender"),  contains("Height"),  contains("Weight"),  contains("ICUType"),  contains("SAPS-I"),  contains("SOFA"),  contains("Length_of_stay"),  contains("Survival"),  contains("In-hospital_death"), contains("HR"), contains("Temp"), contains("GCS"), contains("Creatinine"),  contains("BUN"),  contains("Urine"),  contains("HCT"),  contains("HCO3"),  contains("Platelets"),  contains("WBC"))

# Eliminamos los na's que todavía hay y vemos que esta vez no desaparecen todos los datos, 
# así pues habremos hecho una limpieza que habrá merecido la pena :)
drop_na(data_real_tidy)
```

```
## # A tibble: 3,676 x 41
##    RecordID   Age Gender Height Weight ICUType `SAPS-I`  SOFA
##       <dbl> <dbl>  <dbl>  <dbl>  <dbl>   <dbl>    <dbl> <dbl>
##  1   132539    54      0    -1    -1         4        6     1
##  2   132540    76      1   175.   76         2       16     8
##  3   132541    44      0    -1    56.7       3       21    11
##  4   132543    68      1   180.   84.6       3        7     1
##  5   132545    88      0    -1    -1         3       17     2
##  6   132547    64      1   180.  114         1       14    11
##  7   132548    68      0   163.   87         3       14     4
##  8   132551    78      0   163.   48.4       3       19     8
##  9   132555    74      1   175.   66.1       2       14     6
## 10   132556    64      0    -1    65         3       15     2
## # ... with 3,666 more rows, and 33 more variables: Length_of_stay <dbl>,
## #   Survival <dbl>, `In-hospital_death` <dbl>, HR_count <dbl>,
## #   HR_mean <dbl>, HR_sd <dbl>, Temp_count <dbl>, Temp_mean <dbl>,
## #   Temp_sd <dbl>, GCS_count <dbl>, GCS_mean <dbl>, GCS_sd <dbl>,
## #   Creatinine_count <dbl>, Creatinine_mean <dbl>, Creatinine_sd <dbl>,
## #   BUN_count <dbl>, BUN_mean <dbl>, BUN_sd <dbl>, Urine_count <dbl>,
## #   Urine_mean <dbl>, Urine_sd <dbl>, HCT_count <dbl>, HCT_mean <dbl>,
## #   HCT_sd <dbl>, HCO3_count <dbl>, HCO3_mean <dbl>, HCO3_sd <dbl>,
## #   Platelets_count <dbl>, Platelets_mean <dbl>, Platelets_sd <dbl>,
…
muertes_cond_SOFA = tibble(SOFA = as.factor(c(0:24)), Proporcion = as.factor(contar_sofa(data_real_tidy)))
muertes_cond_SOFA
```

```
## # A tibble: 25 x 2
##    SOFA  Proporcion      
##    <fct> <fct>           
##  1 0     6.74157303370786
##  2 1     4.47284345047923
##  3 2     5.14705882352941
##  4 3     8.96860986547085
##  5 4     14.760147601476 
##  6 5     15.8914728682171
##  7 6     13.8613861386139
##  8 7     16.6666666666667
##  9 8     14.0161725067385
## 10 9     10.4895104895105
## # ... with 15 more rows
```
…
```r
data = filter(data_real_tidy, ICUType == 1)
data
```

```
## # A tibble: 548 x 26
##    RecordID   Age Gender Height Weight ICUType `SAPS-I`  SOFA
##       <dbl> <dbl>  <dbl>  <dbl>  <dbl>   <dbl>    <dbl> <dbl>
##  1   132547    64      1   180.  114         1       14    11
##  2   132570    84      1   170.  103.        1       14     7
##  3   132573    77      1   163.   90.1       1       12     3
##  4   132614    77      1   163.   59         1        8     3
##  5   132617    77      1   170.   75         1        8     5
##  6   132671    55      1   185.   96         1        4     0
##  7   132682    68      1    -1    78.9       1       20     8
##  8   132685    77      1   173.   81.8       1        6     1
##  9   132694    61      0   170.  165         1        9     4
## 10   132717    86      1   168.   73         1       12     4
## # ... with 538 more rows, and 18 more variables: Length_of_stay <dbl>,
## #   Survival <dbl>, `In-hospital_death` <fct>, GCS_count <dbl>,
## #   GCS_mean <dbl>, GCS_sd <dbl>, BUN_count <dbl>, BUN_mean <dbl>,
## #   BUN_sd <dbl>, Urine_count <dbl>, Urine_mean <dbl>, Urine_sd <dbl>,
## #   HCO3_count <dbl>, HCO3_mean <dbl>, HCO3_sd <dbl>,
## #   Creatinine_count <dbl>, Creatinine_mean <dbl>, Creatinine_sd <dbl>
```
…
